{"eventMenu":null,"resultForJsonView":{"resultCode":"SUCCESS","message":"13286's works list","result":{"pagingInfo":{"totalCount":763,"firstPage":1,"prePage":17,"currentPage":18,"nextPage":19,"endPage":39,"pageNumberList":[13,14,15,16,17,18,19,20,21,22],"totalPageSize":39},"itemList":[{"worksNo":280773,"worksTitle":"영화 (Movie)","representImageUrl":"/20170202_23/1486032593099ib5LD_JPEG/crop_image.jpg","representImageThumbType":"f592_444","animatedThumbType":"f592_444_q80_animated","blockStatusCode":"BL00","openYn":"Y","hasVideo":false,"hasSound":false,"hasGif":false,"hasBook":false,"challengeWinYn":"N","challengeFinalYn":"N","collaborationWinYn":"N","firstContentType":"image","contentsCount":1,"commentCount":6,"commentExposureYn":"Y"},{"worksNo":280848,"worksTitle":"하트 (Heart)","representImageUrl":"/20170202_65/1486043937363jC21s_JPEG/crop_image.jpg","representImageThumbType":"f592_444","animatedThumbType":"f592_444_q80_animated","blockStatusCode":"BL00","openYn":"Y","hasVideo":true,"hasSound":false,"hasGif":false,"hasBook":false,"challengeWinYn":"N","challengeFinalYn":"N","collaborationWinYn":"N","firstContentType":"rmc","contentsCount":1,"commentCount":2,"commentExposureYn":"Y"},{"worksNo":280772,"worksTitle":"비가 오네요 (It&#39;s raining)","representImageUrl":"/20170202_193/1486032530426degeW_JPEG/crop_image.jpg","representImageThumbType":"f592_444","animatedThumbType":"f592_444_q80_animated","blockStatusCode":"BL00","openYn":"Y","hasVideo":false,"hasSound":false,"hasGif":false,"hasBook":false,"challengeWinYn":"N","challengeFinalYn":"N","collaborationWinYn":"N","firstContentType":"image","contentsCount":1,"commentCount":5,"commentExposureYn":"Y"},{"worksNo":284504,"worksTitle":"(GIF) 가필드 (Garfield)","representImageUrl":"/20170213_123/1486914645363Ijijl_JPEG/crop_image.jpg","representImageThumbType":"f592_444","animatedThumbType":"f592_444_q80_animated","blockStatusCode":"BL00","openYn":"Y","hasVideo":false,"hasSound":false,"hasGif":true,"hasBook":false,"challengeWinYn":"N","challengeFinalYn":"N","collaborationWinYn":"N","firstContentType":"gif","contentsCount":1,"commentCount":7,"commentExposureYn":"Y"},{"worksNo":284889,"worksTitle":"눈이 와요(It&#39;s snowing","representImageUrl":"/20170214_156/1486999434289DO1Nw_JPEG/crop_image.jpg","representImageThumbType":"f592_444","animatedThumbType":"f592_444_q80_animated","blockStatusCode":"BL00","openYn":"Y","hasVideo":false,"hasSound":false,"hasGif":false,"hasBook":false,"challengeWinYn":"N","challengeFinalYn":"N","collaborationWinYn":"N","firstContentType":"image","contentsCount":1,"commentCount":7,"commentExposureYn":"Y"},{"worksNo":284500,"worksTitle":"(GIF) 아니에요~ (No~)","representImageUrl":"/20170213_49/1486914449089GtRRR_JPEG/crop_image.jpg","representImageThumbType":"f592_444","animatedThumbType":"f592_444_q80_animated","blockStatusCode":"BL00","openYn":"Y","hasVideo":false,"hasSound":false,"hasGif":true,"hasBook":false,"challengeWinYn":"N","challengeFinalYn":"N","collaborationWinYn":"N","firstContentType":"gif","contentsCount":1,"commentCount":4,"commentExposureYn":"Y"},{"worksNo":280845,"worksTitle":"맛있어요! (So good!)","representImageUrl":"/20170202_37/14860436085617WEIs_JPEG/crop_image.jpg","representImageThumbType":"f592_444","animatedThumbType":"f592_444_q80_animated","blockStatusCode":"BL00","openYn":"Y","hasVideo":true,"hasSound":false,"hasGif":false,"hasBook":false,"challengeWinYn":"N","challengeFinalYn":"N","collaborationWinYn":"N","firstContentType":"rmc","contentsCount":1,"commentCount":4,"commentExposureYn":"Y"},{"worksNo":280770,"worksTitle":"책(Book)","representImageUrl":"/20170202_7/14860317973425Mx0I_JPEG/crop_image.jpg","representImageThumbType":"f592_444","animatedThumbType":"f592_444_q80_animated","blockStatusCode":"BL00","openYn":"Y","hasVideo":false,"hasSound":false,"hasGif":false,"hasBook":false,"challengeWinYn":"N","challengeFinalYn":"N","collaborationWinYn":"N","firstContentType":"image","contentsCount":1,"commentCount":4,"commentExposureYn":"Y"},{"worksNo":280768,"worksTitle":"받아랏! (Take it!)","representImageUrl":"/20170202_53/1486031704048mfuXQ_JPEG/crop_image.jpg","representImageThumbType":"f592_444","animatedThumbType":"f592_444_q80_animated","blockStatusCode":"BL00","openYn":"Y","hasVideo":false,"hasSound":false,"hasGif":false,"hasBook":false,"challengeWinYn":"N","challengeFinalYn":"N","collaborationWinYn":"N","firstContentType":"image","contentsCount":1,"commentCount":7,"commentExposureYn":"Y"},{"worksNo":280282,"worksTitle":"눈사람 (snowman)","representImageUrl":"/20170201_122/1485928377853tQuak_JPEG/crop_image.jpg","representImageThumbType":"f592_444","animatedThumbType":"f592_444_q80_animated","blockStatusCode":"BL00","openYn":"Y","hasVideo":true,"hasSound":false,"hasGif":false,"hasBook":false,"challengeWinYn":"N","challengeFinalYn":"N","collaborationWinYn":"N","firstContentType":"rmc","contentsCount":1,"commentCount":7,"commentExposureYn":"Y"},{"worksNo":281105,"worksTitle":"편안하고 사랑스럽고 그래 컬러링 북 ","representImageUrl":"/20170203_83/1486099780451xXfOM_JPEG/image.jpg","representImageThumbType":"f592_444","animatedThumbType":"f592_444_q80_animated","blockStatusCode":"BL00","openYn":"Y","hasVideo":false,"hasSound":false,"hasGif":false,"hasBook":false,"challengeWinYn":"N","challengeFinalYn":"N","collaborationWinYn":"N","firstContentType":"image","contentsCount":1,"commentCount":5,"commentExposureYn":"Y"},{"worksNo":280636,"worksTitle":"대화(Talk)","representImageUrl":"/20170202_69/1486004881129CGde4_JPEG/crop_image.jpg","representImageThumbType":"f592_444","animatedThumbType":"f592_444_q80_animated","blockStatusCode":"BL00","openYn":"Y","hasVideo":false,"hasSound":false,"hasGif":false,"hasBook":false,"challengeWinYn":"N","challengeFinalYn":"N","collaborationWinYn":"N","firstContentType":"image","contentsCount":1,"commentCount":6,"commentExposureYn":"Y"},{"worksNo":280114,"worksTitle":"(Animation) 그냥, 같이 있으면 좋아!","representImageUrl":"/20170201_168/1485891872269yDhql_JPEG/crop_image.jpg","representImageThumbType":"f592_444","animatedThumbType":"f592_444_q80_animated","blockStatusCode":"BL00","openYn":"Y","hasVideo":true,"hasSound":false,"hasGif":false,"hasBook":false,"challengeWinYn":"N","challengeFinalYn":"N","collaborationWinYn":"N","firstContentType":"rmc","contentsCount":1,"commentCount":21,"commentExposureYn":"Y"},{"worksNo":277242,"worksTitle":"졸업식(graduation)","representImageUrl":"/20170123_238/1485157454467WN9Hj_JPEG/crop_image.jpg","representImageThumbType":"f592_444","animatedThumbType":"f592_444_q80_animated","blockStatusCode":"BL00","openYn":"Y","hasVideo":false,"hasSound":false,"hasGif":false,"hasBook":false,"challengeWinYn":"N","challengeFinalYn":"N","collaborationWinYn":"N","firstContentType":"image","contentsCount":1,"commentCount":13,"commentExposureYn":"Y"},{"worksNo":277240,"worksTitle":"잘 들어봐요 (Listen carefully)","representImageUrl":"/20170123_64/1485157351609VfqCT_JPEG/crop_image.jpg","representImageThumbType":"f592_444","animatedThumbType":"f592_444_q80_animated","blockStatusCode":"BL00","openYn":"Y","hasVideo":false,"hasSound":false,"hasGif":false,"hasBook":false,"challengeWinYn":"N","challengeFinalYn":"N","collaborationWinYn":"N","firstContentType":"image","contentsCount":1,"commentCount":8,"commentExposureYn":"Y"},{"worksNo":277239,"worksTitle":"동글동글 노른자 (Roundy yolks)","representImageUrl":"/20170123_166/1485157306102Q3KaG_JPEG/crop_image.jpg","representImageThumbType":"f592_444","animatedThumbType":"f592_444_q80_animated","blockStatusCode":"BL00","openYn":"Y","hasVideo":false,"hasSound":false,"hasGif":false,"hasBook":false,"challengeWinYn":"N","challengeFinalYn":"N","collaborationWinYn":"N","firstContentType":"image","contentsCount":1,"commentCount":8,"commentExposureYn":"Y"},{"worksNo":276210,"worksTitle":"(GIF) 달려요! (running)","representImageUrl":"/20170120_21/1484908714654AoAB5_JPEG/crop_image.jpg","representImageThumbType":"f592_444","animatedThumbType":"f592_444_q80_animated","blockStatusCode":"BL00","openYn":"Y","hasVideo":false,"hasSound":false,"hasGif":true,"hasBook":false,"challengeWinYn":"N","challengeFinalYn":"N","collaborationWinYn":"N","firstContentType":"gif","contentsCount":1,"commentCount":3,"commentExposureYn":"Y"},{"worksNo":275865,"worksTitle":"장난 (Prank)","representImageUrl":"/20170119_94/1484831167791UYz3n_JPEG/crop_image.jpg","representImageThumbType":"f592_444","animatedThumbType":"f592_444_q80_animated","blockStatusCode":"BL00","openYn":"Y","hasVideo":false,"hasSound":false,"hasGif":false,"hasBook":false,"challengeWinYn":"N","challengeFinalYn":"N","collaborationWinYn":"N","firstContentType":"image","contentsCount":1,"commentCount":5,"commentExposureYn":"Y"},{"worksNo":273180,"worksTitle":"슬퍼요 (I&#39;m sad)","representImageUrl":"/20170118_271/1484667358794uXss0_JPEG/crop_image.jpg","representImageThumbType":"f592_444","animatedThumbType":"f592_444_q80_animated","blockStatusCode":"BL00","openYn":"Y","hasVideo":true,"hasSound":false,"hasGif":false,"hasBook":false,"challengeWinYn":"N","challengeFinalYn":"N","collaborationWinYn":"N","firstContentType":"rmc","contentsCount":1,"commentCount":7,"commentExposureYn":"Y"},{"worksNo":271476,"worksTitle":"저도요","representImageUrl":"/20170116_275/1484541346799PSWt4_JPEG/image.jpg","representImageThumbType":"a600_q80","animatedThumbType":"a600_q80_animated","blockStatusCode":"BL00","openYn":"Y","hasVideo":false,"hasSound":false,"hasGif":false,"hasBook":false,"challengeWinYn":"N","challengeFinalYn":"N","collaborationWinYn":"N","firstContentType":"image","contentsCount":1,"commentCount":4,"commentExposureYn":"Y"}]}}}